Module_7+1/processor.vcd
$date
	Thu Mar 27 01:22:14 2025
$end
$version
	Icarus Verilog
$end
$timescale
	1s
$end
$scope module testbench1 $end
$var reg 1 ! clk1 $end
$var reg 1 " clk2 $end
$var integer 32 # k [31:0] $end
$scope module MIPS $end
$var wire 1 ! clk1 $end
$var wire 1 " clk2 $end
$var parameter 6 $ ADD $end
$var parameter 6 % ADDI $end
$var parameter 6 & AND $end
$var parameter 6 ' BEQZ $end
$var parameter 6 ( BNEQZ $end
$var parameter 3 ) BRANCH $end
$var parameter 3 * HALT $end
$var parameter 6 + HLT $end
$var parameter 3 , LOAD $end
$var parameter 6 - LW $end
$var parameter 6 . MUL $end
$var parameter 6 / OR $end
$var parameter 3 0 RM_ALU $end
$var parameter 3 1 RR_ALU $end
$var parameter 6 2 SLT $end
$var parameter 6 3 SLTI $end
$var parameter 3 4 STORE $end
$var parameter 6 5 SUB $end
$var parameter 6 6 SUBI $end
$var parameter 6 7 SW $end
$var reg 32 8 EX_MEM_ALUOut [31:0] $end
$var reg 32 9 EX_MEM_B [31:0] $end
$var reg 32 : EX_MEM_IR [31:0] $end
$var reg 1 ; EX_MEM_cond $end
$var reg 3 < EX_MEM_type [2:0] $end
$var reg 1 = HALTED $end
$var reg 32 > ID_EX_A [31:0] $end
$var reg 32 ? ID_EX_B [31:0] $end
$var reg 32 @ ID_EX_IR [31:0] $end
$var reg 32 A ID_EX_Imm [31:0] $end
$var reg 32 B ID_EX_NPC [31:0] $end
$var reg 3 C ID_EX_type [2:0] $end
$var reg 32 D IF_ID_IR [31:0] $end
$var reg 32 E IF_ID_NPC [31:0] $end
$var reg 32 F MEM_WB_ALUOut [31:0] $end
$var reg 32 G MEM_WB_IR [31:0] $end
$var reg 32 H MEM_WB_LMD [31:0] $end
$var reg 3 I MEM_WB_type [2:0] $end
$var reg 32 J PC [31:0] $end
$var reg 1 K TAKEN_BRANCH $end
$upscope $end
$upscope $end
$enddefinitions $end
$comment Show the parameter values. $end
$dumpall
b1001 7
b1011 6
b1 5
b11 4
b1100 3
b100 2
b0 1
b1 0
b11 /
b101 .
b1000 -
b10 ,
b111111 +
b101 *
b100 )
b1101 (
b1110 '
b10 &
b1010 %
b0 $
$end
#0
$dumpvars
0K
b0 J
bx I
bx H
bx G
bx F
bx E
bx D
bx C
bx B
bx A
bx @
bx ?
bx >
0=
bx <
x;
bx :
bx 9
bx 8
b100000 #
0"
0!
$end
#5
1!
#7
b1 J
b1 E
b101000000010100000000011001000 D
#10
0!
#15
b0 >
1"
#17
b1 C
b11001000 A
b101000000010100000000011001000 @
b1 B
b1010 ?
#20
0"
#25
1!
#27
b11001000 8
b101000000010100000000011001000 :
b1 <
b10 J
b10 E
b101000000000100000000000000001 D
#30
0!
#35
b1 I
1"
#37
b11001000 F
b101000000010100000000011001000 G
b1 A
b101000000000100000000000000001 @
b10 B
b10 ?
#40
0"
#45
1!
#47
b11 J
b11 E
b100001010000110000000000000000 D
b1 8
b101000000000100000000000000001 :
#50
0!
#55
1"
#57
b10 C
b0 A
b100001010000110000000000000000 @
b11 B
b11 ?
b11001000 >
b1 F
b101000000000100000000000000001 G
#60
0"
#65
1!
#67
b11 9
b11001000 8
b100001010000110000000000000000 :
b10 <
b100 J
b100 E
b1110100101001010000000000000 D
#70
0!
#75
b10 I
1"
#77
b111 H
b100001010000110000000000000000 G
b0 C
b11111111111111111010000000000000 A
b1110100101001010000000000000 @
b100 B
b10100 ?
b10100 >
#80
0"
#85
1!
#87
b101 J
b101 E
b10100010000110001000000000000 D
b10100 8
b1110100101001010000000000000 :
b0 <
#90
0!
#95
b0 I
1"
#97
b1000000000000 A
b10100010000110001000000000000 @
b101 B
b111 ?
b1 >
b10100 F
b1110100101001010000000000000 G
#100
0"
#105
1!
#107
b111 8
b10100010000110001000000000000 :
b110 J
b110 E
b101100011000110000000000000001 D
#110
0!
#115
1"
#117
b111 F
b10100010000110001000000000000 G
b1 C
b1 A
b101100011000110000000000000001 @
b110 B
b111 >
#120
0"
#125
1!
#127
b111 J
b111 E
b1110100101001010000000000000 D
b110 8
b101100011000110000000000000001 :
b1 <
#130
0!
#135
b1 I
1"
#137
b0 C
b11111111111111111010000000000000 A
b1110100101001010000000000000 @
b111 B
b10100 ?
b10100 >
b110 F
b101100011000110000000000000001 G
#140
0"
#145
1!
#147
b10100 8
b1110100101001010000000000000 :
b0 <
b1000 J
b1000 E
b110100011000001111111111111100 D
#150
0!
#155
b0 I
b0 ?
1"
#157
b10100 F
b1110100101001010000000000000 G
b100 C
b11111111111111111111111111111100 A
b110100011000001111111111111100 @
b1000 B
b110 >
#160
0"
#165
1!
#167
b1001 J
b1001 E
b100101010000101111111111111110 D
0;
b100 8
b110100011000001111111111111100 :
b100 <
#170
0!
#175
b100 I
1"
#177
b11 C
b11111111111111111111111111111110 A
b100101010000101111111111111110 @
b1001 B
b111 ?
b11001000 >
b110100011000001111111111111100 G
#180
0"
#185
1!
#187
b111 9
b11000110 8
b100101010000101111111111111110 :
b11 <
b1010 J
b1010 E
b11111100000000000000000000000000 D
#190
0!
#195
b11 I
b0 ?
b0 >
1"
#197
b100101010000101111111111111110 G
b101 C
b0 A
b11111100000000000000000000000000 @
b1010 B
#200
0"
#205
1!
#207
b1011 J
b1011 E
bx D
b11111100000000000000000000000000 :
b101 <
#210
0!
#215
b101 I
1"
#217
bx A
bx @
b1011 B
bx ?
bx >
b11111100000000000000000000000000 G
#220
0"
#225
1!
#227
1=
bx :
b1100 J
b1100 E
